testbench.vcd
$version Generated by VerilatedVcd $end
$date Tue Oct 21 16:38:39 2025
 $end
$timescale   1ps $end

 $scope module TOP $end
  $var wire  1 q! clock $end
  $var wire  1 r! reset $end
  $scope module testbench $end
   $var wire 32 s! MEM_ADDR_WIDTH [31:0] $end
   $var wire 32 t! NUMCORES [31:0] $end
   $var wire 32 u! c [31:0] $end
   $var wire  1 q! clock $end
   $var wire 32 7 cycles [31:0] $end
   $var wire 32 ) dmem_addr0 [31:0] $end
   $var wire 32 1 dmem_addr1 [31:0] $end
   $var wire  2 6 dmem_cond [1:0] $end
   $var wire 32 , dmem_rdata0 [31:0] $end
   $var wire 32 4 dmem_rdata1 [31:0] $end
   $var wire  2 5 dmem_resv [1:0] $end
   $var wire  1 ' dmem_valid0 $end
   $var wire  1 / dmem_valid1 $end
   $var wire 32 + dmem_wdata0 [31:0] $end
   $var wire 32 3 dmem_wdata1 [31:0] $end
   $var wire  1 ( dmem_wr_is_cond0 $end
   $var wire  1 0 dmem_wr_is_cond1 $end
   $var wire  4 * dmem_wstrb0 [3:0] $end
   $var wire  4 2 dmem_wstrb1 [3:0] $end
   $var wire 32 % imem_addr0 [31:0] $end
   $var wire 32 - imem_addr1 [31:0] $end
   $var wire 32 & imem_data0 [31:0] $end
   $var wire 32 . imem_data1 [31:0] $end
   $var wire 32 8 r [31:0] $end
   $var wire  1 r! reset $end
   $var wire  1 # trap0 $end
   $var wire  1 $ trap1 $end
   $scope module dut_0 $end
    $var wire  5 %" AMO_LR [4:0] $end
    $var wire  5 &" AMO_SC [4:0] $end
    $var wire 32 '" MEM_WAIT_DEFAULT [31:0] $end
    $var wire 32 w! NUMREGS [31:0] $end
    $var wire  7 #" OPCODE_AMO [6:0] $end
    $var wire  7 {! OPCODE_AUIPC [6:0] $end
    $var wire  7 ~! OPCODE_BRANCH [6:0] $end
    $var wire  7 |! OPCODE_JAL [6:0] $end
    $var wire  7 }! OPCODE_JALR [6:0] $end
    $var wire  7 !" OPCODE_LOAD [6:0] $end
    $var wire  7 z! OPCODE_LUI [6:0] $end
    $var wire  7 y! OPCODE_OP [6:0] $end
    $var wire  7 x! OPCODE_OP_IMM [6:0] $end
    $var wire  7 "" OPCODE_STORE [6:0] $end
    $var wire  7 $" OPCODE_SYSTEM [6:0] $end
    $var wire 32 v! RESET_ADDR [31:0] $end
    $var wire  1 e aq $end
    $var wire  1 q! clock $end
    $var wire 32 ) dmem_addr [31:0] $end
    $var wire  1 : dmem_cond $end
    $var wire 32 , dmem_rdata [31:0] $end
    $var wire  1 9 dmem_resv $end
    $var wire  1 ' dmem_valid $end
    $var wire 32 + dmem_wdata [31:0] $end
    $var wire  1 ( dmem_wr_is_cond $end
    $var wire  4 * dmem_wstrb [3:0] $end
    $var wire  1 g illegalinsn $end
    $var wire 32 % imem_addr [31:0] $end
    $var wire 32 & imem_data [31:0] $end
    $var wire 12 c imm_i [11:0] $end
    $var wire 32 d imm_i_sext [31:0] $end
    $var wire 32 & insn [31:0] $end
    $var wire  3 ^ insn_funct3 [2:0] $end
    $var wire  7 [ insn_funct7 [6:0] $end
    $var wire  7 ` insn_opcode [6:0] $end
    $var wire  5 _ insn_rd [4:0] $end
    $var wire  5 ] insn_rs1 [4:0] $end
    $var wire  5 \ insn_rs2 [4:0] $end
    $var wire 32 ) mem_addr [31:0] $end
    $var wire  1 o mem_is_load $end
    $var wire  1 m mem_is_lr $end
    $var wire  1 n mem_is_sc $end
    $var wire  3 p mem_load_funct3 [2:0] $end
    $var wire  5 l mem_rd [4:0] $end
    $var wire  1 9 mem_resv $end
    $var wire  1 ' mem_valid $end
    $var wire  1 k mem_wait $end
    $var wire 32 + mem_wdata [31:0] $end
    $var wire  1 ( mem_wr_is_cond $end
    $var wire  4 * mem_wstrb [3:0] $end
    $var wire 32 i npc [31:0] $end
    $var wire 32 % pc [31:0] $end
    $var wire 32 ; regfile(0) [31:0] $end
    $var wire 32 < regfile(1) [31:0] $end
    $var wire 32 E regfile(10) [31:0] $end
    $var wire 32 F regfile(11) [31:0] $end
    $var wire 32 G regfile(12) [31:0] $end
    $var wire 32 H regfile(13) [31:0] $end
    $var wire 32 I regfile(14) [31:0] $end
    $var wire 32 J regfile(15) [31:0] $end
    $var wire 32 K regfile(16) [31:0] $end
    $var wire 32 L regfile(17) [31:0] $end
    $var wire 32 M regfile(18) [31:0] $end
    $var wire 32 N regfile(19) [31:0] $end
    $var wire 32 = regfile(2) [31:0] $end
    $var wire 32 O regfile(20) [31:0] $end
    $var wire 32 P regfile(21) [31:0] $end
    $var wire 32 Q regfile(22) [31:0] $end
    $var wire 32 R regfile(23) [31:0] $end
    $var wire 32 S regfile(24) [31:0] $end
    $var wire 32 T regfile(25) [31:0] $end
    $var wire 32 U regfile(26) [31:0] $end
    $var wire 32 V regfile(27) [31:0] $end
    $var wire 32 W regfile(28) [31:0] $end
    $var wire 32 X regfile(29) [31:0] $end
    $var wire 32 > regfile(3) [31:0] $end
    $var wire 32 Y regfile(30) [31:0] $end
    $var wire 32 Z regfile(31) [31:0] $end
    $var wire 32 ? regfile(4) [31:0] $end
    $var wire 32 @ regfile(5) [31:0] $end
    $var wire 32 A regfile(6) [31:0] $end
    $var wire 32 B regfile(7) [31:0] $end
    $var wire 32 C regfile(8) [31:0] $end
    $var wire 32 D regfile(9) [31:0] $end
    $var wire 32 j regfiledata [31:0] $end
    $var wire  1 h regwrite $end
    $var wire  1 r! reset $end
    $var wire  1 f rl $end
    $var wire 32 a rs1_value [31:0] $end
    $var wire 32 b rs2_value [31:0] $end
    $var wire  1 # trap $end
    $scope module unnamedblk1 $end
     $var wire 32 q i [31:0] $end
    $upscope $end
   $upscope $end
   $scope module dut_1 $end
    $var wire  5 %" AMO_LR [4:0] $end
    $var wire  5 &" AMO_SC [4:0] $end
    $var wire 32 '" MEM_WAIT_DEFAULT [31:0] $end
    $var wire 32 w! NUMREGS [31:0] $end
    $var wire  7 #" OPCODE_AMO [6:0] $end
    $var wire  7 {! OPCODE_AUIPC [6:0] $end
    $var wire  7 ~! OPCODE_BRANCH [6:0] $end
    $var wire  7 |! OPCODE_JAL [6:0] $end
    $var wire  7 }! OPCODE_JALR [6:0] $end
    $var wire  7 !" OPCODE_LOAD [6:0] $end
    $var wire  7 z! OPCODE_LUI [6:0] $end
    $var wire  7 y! OPCODE_OP [6:0] $end
    $var wire  7 x! OPCODE_OP_IMM [6:0] $end
    $var wire  7 "" OPCODE_STORE [6:0] $end
    $var wire  7 $" OPCODE_SYSTEM [6:0] $end
    $var wire 32 (" RESET_ADDR [31:0] $end
    $var wire  1 @! aq $end
    $var wire  1 q! clock $end
    $var wire 32 1 dmem_addr [31:0] $end
    $var wire  1 s dmem_cond $end
    $var wire 32 4 dmem_rdata [31:0] $end
    $var wire  1 r dmem_resv $end
    $var wire  1 / dmem_valid $end
    $var wire 32 3 dmem_wdata [31:0] $end
    $var wire  1 0 dmem_wr_is_cond $end
    $var wire  4 2 dmem_wstrb [3:0] $end
    $var wire  1 B! illegalinsn $end
    $var wire 32 - imem_addr [31:0] $end
    $var wire 32 . imem_data [31:0] $end
    $var wire 12 >! imm_i [11:0] $end
    $var wire 32 ?! imm_i_sext [31:0] $end
    $var wire 32 . insn [31:0] $end
    $var wire  3 9! insn_funct3 [2:0] $end
    $var wire  7 6! insn_funct7 [6:0] $end
    $var wire  7 ;! insn_opcode [6:0] $end
    $var wire  5 :! insn_rd [4:0] $end
    $var wire  5 8! insn_rs1 [4:0] $end
    $var wire  5 7! insn_rs2 [4:0] $end
    $var wire 32 1 mem_addr [31:0] $end
    $var wire  1 J! mem_is_load $end
    $var wire  1 H! mem_is_lr $end
    $var wire  1 I! mem_is_sc $end
    $var wire  3 K! mem_load_funct3 [2:0] $end
    $var wire  5 G! mem_rd [4:0] $end
    $var wire  1 r mem_resv $end
    $var wire  1 / mem_valid $end
    $var wire  1 F! mem_wait $end
    $var wire 32 3 mem_wdata [31:0] $end
    $var wire  1 0 mem_wr_is_cond $end
    $var wire  4 2 mem_wstrb [3:0] $end
    $var wire 32 D! npc [31:0] $end
    $var wire 32 - pc [31:0] $end
    $var wire 32 t regfile(0) [31:0] $end
    $var wire 32 u regfile(1) [31:0] $end
    $var wire 32 ~ regfile(10) [31:0] $end
    $var wire 32 !! regfile(11) [31:0] $end
    $var wire 32 "! regfile(12) [31:0] $end
    $var wire 32 #! regfile(13) [31:0] $end
    $var wire 32 $! regfile(14) [31:0] $end
    $var wire 32 %! regfile(15) [31:0] $end
    $var wire 32 &! regfile(16) [31:0] $end
    $var wire 32 '! regfile(17) [31:0] $end
    $var wire 32 (! regfile(18) [31:0] $end
    $var wire 32 )! regfile(19) [31:0] $end
    $var wire 32 v regfile(2) [31:0] $end
    $var wire 32 *! regfile(20) [31:0] $end
    $var wire 32 +! regfile(21) [31:0] $end
    $var wire 32 ,! regfile(22) [31:0] $end
    $var wire 32 -! regfile(23) [31:0] $end
    $var wire 32 .! regfile(24) [31:0] $end
    $var wire 32 /! regfile(25) [31:0] $end
    $var wire 32 0! regfile(26) [31:0] $end
    $var wire 32 1! regfile(27) [31:0] $end
    $var wire 32 2! regfile(28) [31:0] $end
    $var wire 32 3! regfile(29) [31:0] $end
    $var wire 32 w regfile(3) [31:0] $end
    $var wire 32 4! regfile(30) [31:0] $end
    $var wire 32 5! regfile(31) [31:0] $end
    $var wire 32 x regfile(4) [31:0] $end
    $var wire 32 y regfile(5) [31:0] $end
    $var wire 32 z regfile(6) [31:0] $end
    $var wire 32 { regfile(7) [31:0] $end
    $var wire 32 | regfile(8) [31:0] $end
    $var wire 32 } regfile(9) [31:0] $end
    $var wire 32 E! regfiledata [31:0] $end
    $var wire  1 C! regwrite $end
    $var wire  1 r! reset $end
    $var wire  1 A! rl $end
    $var wire 32 <! rs1_value [31:0] $end
    $var wire 32 =! rs2_value [31:0] $end
    $var wire  1 $ trap $end
    $scope module unnamedblk1 $end
     $var wire 32 L! i [31:0] $end
    $upscope $end
   $upscope $end
   $scope module mem_0 $end
    $var wire 32 )" MEM_ADDR_WIDTH [31:0] $end
    $var wire 32 *" RESV_BITS [31:0] $end
    $var wire  1 q! clock $end
    $var wire 32 U! dmem_addr(0) [31:0] $end
    $var wire 32 V! dmem_addr(1) [31:0] $end
    $var wire 32 ) dmem_addr0 [31:0] $end
    $var wire 32 1 dmem_addr1 [31:0] $end
    $var wire  2 6 dmem_cond [1:0] $end
    $var wire  1 f! dmem_cond_reg(0) $end
    $var wire  1 g! dmem_cond_reg(1) $end
    $var wire 32 , dmem_rdata0 [31:0] $end
    $var wire 32 4 dmem_rdata1 [31:0] $end
    $var wire 32 [! dmem_rdata_reg(0) [31:0] $end
    $var wire 32 \! dmem_rdata_reg(1) [31:0] $end
    $var wire  2 5 dmem_resv [1:0] $end
    $var wire  1 Q! dmem_valid(0) $end
    $var wire  1 R! dmem_valid(1) $end
    $var wire  1 ' dmem_valid0 $end
    $var wire  1 / dmem_valid1 $end
    $var wire 32 Y! dmem_wdata(0) [31:0] $end
    $var wire 32 Z! dmem_wdata(1) [31:0] $end
    $var wire 32 + dmem_wdata0 [31:0] $end
    $var wire 32 3 dmem_wdata1 [31:0] $end
    $var wire  1 S! dmem_wr_is_cond(0) $end
    $var wire  1 T! dmem_wr_is_cond(1) $end
    $var wire  1 ( dmem_wr_is_cond0 $end
    $var wire  1 0 dmem_wr_is_cond1 $end
    $var wire  4 W! dmem_wstrb(0) [3:0] $end
    $var wire  4 X! dmem_wstrb(1) [3:0] $end
    $var wire  4 * dmem_wstrb0 [3:0] $end
    $var wire  4 2 dmem_wstrb1 [3:0] $end
    $var wire  1 `! hart_write_enable(0) $end
    $var wire  1 a! hart_write_enable(1) $end
    $var wire 32 M! imem_addr(0) [31:0] $end
    $var wire 32 N! imem_addr(1) [31:0] $end
    $var wire 32 % imem_addr0 [31:0] $end
    $var wire 32 - imem_addr1 [31:0] $end
    $var wire 32 O! imem_data(0) [31:0] $end
    $var wire 32 P! imem_data(1) [31:0] $end
    $var wire 32 & imem_data0 [31:0] $end
    $var wire 32 . imem_data1 [31:0] $end
    $var wire  1 r! reset $end
    $var wire 12 b! resv_addr(0) [11:0] $end
    $var wire 12 c! resv_addr(1) [11:0] $end
    $var wire 12 h! resv_set(0) [11:0] $end
    $var wire 12 i! resv_set(1) [11:0] $end
    $var wire  1 d! resv_valid(0) $end
    $var wire  1 e! resv_valid(1) $end
    $var wire  1 j! sc_conflict $end
    $var wire 15 ]! write_addr(0) [14:0] $end
    $var wire 15 ^! write_addr(1) [14:0] $end
    $var wire  1 _! write_conflict_normal $end
    $scope module hart_gen(0) $end
     $var wire  1 k! hart_sc_succeeds $end
     $var wire 32 +" other [31:0] $end
     $var wire  1 l! other_norm_store_to_this_block $end
     $var wire  1 m! other_sc_to_this_block $end
    $upscope $end
    $scope module hart_gen(1) $end
     $var wire  1 n! hart_sc_succeeds $end
     $var wire 32 v! other [31:0] $end
     $var wire  1 o! other_norm_store_to_this_block $end
     $var wire  1 p! other_sc_to_this_block $end
    $upscope $end
   $upscope $end
  $upscope $end
 $upscope $end
$enddefinitions $end


#0
0#
0$
b00000000000000000000000000000000 %
b00001100000000000000000100010011 &
0'
0(
b00000000000000000000000000000000 )
b0000 *
b00000000000000000000000000000000 +
b00000000000000000000000000000000 ,
b00000000000000000000000000000000 -
b00001100000000000000000100010011 .
0/
00
b00000000000000000000000000000000 1
b0000 2
b00000000000000000000000000000000 3
b00000000000000000000000000000000 4
b00 5
b00 6
b00000000000000000000000000000000 7
b00000000000000000000000000000000 8
09
0:
b00000000000000000000000000000000 ;
b00000000000000000000000000000000 <
b00000000000000000000000000000000 =
b00000000000000000000000000000000 >
b00000000000000000000000000000000 ?
b00000000000000000000000000000000 @
b00000000000000000000000000000000 A
b00000000000000000000000000000000 B
b00000000000000000000000000000000 C
b00000000000000000000000000000000 D
b00000000000000000000000000000000 E
b00000000000000000000000000000000 F
b00000000000000000000000000000000 G
b00000000000000000000000000000000 H
b00000000000000000000000000000000 I
b00000000000000000000000000000000 J
b00000000000000000000000000000000 K
b00000000000000000000000000000000 L
b00000000000000000000000000000000 M
b00000000000000000000000000000000 N
b00000000000000000000000000000000 O
b00000000000000000000000000000000 P
b00000000000000000000000000000000 Q
b00000000000000000000000000000000 R
b00000000000000000000000000000000 S
b00000000000000000000000000000000 T
b00000000000000000000000000000000 U
b00000000000000000000000000000000 V
b00000000000000000000000000000000 W
b00000000000000000000000000000000 X
b00000000000000000000000000000000 Y
b00000000000000000000000000000000 Z
b0000110 [
b00000 \
b00000 ]
b000 ^
b00010 _
b0010011 `
b00000000000000000000000000000000 a
b00000000000000000000000000000000 b
b000011000000 c
b00000000000000000000000011000000 d
1e
0f
0g
1h
b00000000000000000000000000000100 i
b00000000000000000000000011000000 j
0k
b00000 l
0m
0n
0o
b000 p
b00000000000000000000000000000000 q
0r
0s
b00000000000000000000000000000000 t
b00000000000000000000000000000000 u
b00000000000000000000000000000000 v
b00000000000000000000000000000000 w
b00000000000000000000000000000000 x
b00000000000000000000000000000000 y
b00000000000000000000000000000000 z
b00000000000000000000000000000000 {
b00000000000000000000000000000000 |
b00000000000000000000000000000000 }
b00000000000000000000000000000000 ~
b00000000000000000000000000000000 !!
b00000000000000000000000000000000 "!
b00000000000000000000000000000000 #!
b00000000000000000000000000000000 $!
b00000000000000000000000000000000 %!
b00000000000000000000000000000000 &!
b00000000000000000000000000000000 '!
b00000000000000000000000000000000 (!
b00000000000000000000000000000000 )!
b00000000000000000000000000000000 *!
b00000000000000000000000000000000 +!
b00000000000000000000000000000000 ,!
b00000000000000000000000000000000 -!
b00000000000000000000000000000000 .!
b00000000000000000000000000000000 /!
b00000000000000000000000000000000 0!
b00000000000000000000000000000000 1!
b00000000000000000000000000000000 2!
b00000000000000000000000000000000 3!
b00000000000000000000000000000000 4!
b00000000000000000000000000000000 5!
b0000110 6!
b00000 7!
b00000 8!
b000 9!
b00010 :!
b0010011 ;!
b00000000000000000000000000000000 <!
b00000000000000000000000000000000 =!
b000011000000 >!
b00000000000000000000000011000000 ?!
1@!
0A!
0B!
1C!
b00000000000000000000000000000100 D!
b00000000000000000000000011000000 E!
0F!
b00000 G!
0H!
0I!
0J!
b000 K!
b00000000000000000000000000000000 L!
b00000000000000000000000000000000 M!
b00000000000000000000000000000000 N!
b00001100000000000000000100010011 O!
b00001100000000000000000100010011 P!
0Q!
0R!
0S!
0T!
b00000000000000000000000000000000 U!
b00000000000000000000000000000000 V!
b0000 W!
b0000 X!
b00000000000000000000000000000000 Y!
b00000000000000000000000000000000 Z!
b00000000000000000000000000000000 [!
b00000000000000000000000000000000 \!
b000000000000000 ]!
b000000000000000 ^!
0_!
0`!
0a!
b000000000000 b!
b000000000000 c!
0d!
0e!
0f!
0g!
b000000000000 h!
b000000000000 i!
0j!
0k!
0l!
0m!
0n!
0o!
0p!
1q!
1r!
b00000000000000000000000000010000 s!
b00000000000000000000000000000010 t!
b00000000000000000000000000000000 u!
b00000000000000000000000000000000 v!
b00000000000000000000000000100000 w!
b0010011 x!
b0110011 y!
b0110111 z!
b0010111 {!
b1101111 |!
b1100111 }!
b1100011 ~!
b0000011 !"
b0100011 ""
b0101111 #"
b1110011 $"
b00010 %"
b00011 &"
b00000000000000000000000000000000 '"
b00000000000000010000000000000000 ("
b00000000000000000000000000010001 )"
b00000000000000000000000000001100 *"
b00000000000000000000000000000001 +"
#5
0q!
#10
b00000000000000010000000000000000 -
b00001100000100000000000100010011 .
b11 6
b00000000000000000000000000000001 7
1:
b00000000000000000000000000100000 q
1s
b00001 7!
b000011000001 >!
b00000000000000000000000011000001 ?!
b00000000000000010000000000000100 D!
b00000000000000000000000011000001 E!
b00000000000000000000000000100000 L!
b00000000000000010000000000000000 N!
b00001100000100000000000100010011 P!
1f!
1g!
1q!
#15
0q!
#20
b00000000000000000000000000000010 7
1q!
#25
0q!
#30
b00000000000000000000000000000011 7
1q!
#35
0q!
#40
b00000000000000000000000000000100 7
1q!
#45
0q!
#50
b00000000000000000000000000000101 7
1q!
#55
0q!
0r!
#60
b00000000000000000000000000000100 %
b01001011000000000000000110010011 &
b00000000000000010000000000000100 -
b01001011000000000000000110010011 .
b00000000000000000000000000000110 7
b00000000000000000000000011000000 =
b0100101 [
b10000 \
b00011 _
b010010110000 c
b00000000000000000000010010110000 d
0e
1f
b00000000000000000000000000001000 i
b00000000000000000000010010110000 j
b00000000000000000000000011000001 v
b0100101 6!
b10000 7!
b00011 :!
b010010110000 >!
b00000000000000000000010010110000 ?!
0@!
1A!
b00000000000000010000000000001000 D!
b00000000000000000000010010110000 E!
b00000000000000000000000000000100 M!
b00000000000000010000000000000100 N!
b01001011000000000000000110010011 O!
b01001011000000000000000110010011 P!
1q!
#65
0q!
#70
b00000000000000000000000000001000 %
b11111111010000000000001010010011 &
b00000000000000010000000000001000 -
b11111111010000000000001010010011 .
b00000000000000000000000000000111 7
b00000000000000000000010010110000 >
b1111111 [
b10100 \
b00101 _
b111111110100 c
b11111111111111111111111111110100 d
1e
b00000000000000000000000000001100 i
b11111111111111111111111111110100 j
b00000000000000000000010010110000 w
b1111111 6!
b10100 7!
b00101 :!
b111111110100 >!
b11111111111111111111111111110100 ?!
1@!
b00000000000000010000000000001100 D!
b11111111111111111111111111110100 E!
b00000000000000000000000000001000 M!
b00000000000000010000000000001000 N!
b11111111010000000000001010010011 O!
b11111111010000000000001010010011 P!
1q!
#75
0q!
#80
b00000000000000000000000000001100 %
b00000000000000000000000000010011 &
b00000000000000010000000000001100 -
b00000000000000000000000000010011 .
b00000000000000000000000000001000 7
b11111111111111111111111111110100 @
b0000000 [
b00000 \
b00000 _
b000000000000 c
b00000000000000000000000000000000 d
0e
0f
b00000000000000000000000000010000 i
b00000000000000000000000000000000 j
b11111111111111111111111111110100 y
b0000000 6!
b00000 7!
b00000 :!
b000000000000 >!
b00000000000000000000000000000000 ?!
0@!
0A!
b00000000000000010000000000010000 D!
b00000000000000000000000000000000 E!
b00000000000000000000000000001100 M!
b00000000000000010000000000001100 N!
b00000000000000000000000000010011 O!
b00000000000000000000000000010011 P!
1q!
#85
0q!
#90
b00000000000000000000000000010000 %
b00000000000000010000000000010000 -
b00000000000000000000000000001001 7
b00000000000000000000000000010100 i
b00000000000000010000000000010100 D!
b00000000000000000000000000010000 M!
b00000000000000010000000000010000 N!
1q!
#95
0q!
#100
b00000000000000000000000000010100 %
b00000000000000010000000000010100 -
b00010000000000011010001000101111 .
1/
b00000000000000000000010010110000 1
b10 5
b00000000000000000000000000001010 7
b00000000000000000000000000011000 i
1r
b0001000 6!
b00011 8!
b010 9!
b00100 :!
b0101111 ;!
b00000000000000000000010010110000 <!
b000100000000 >!
b00000000000000000000000100000000 ?!
b00000000000000010000000000011000 D!
b00000000000000000000000000010100 M!
b00000000000000010000000000010100 N!
b00010000000000011010001000101111 P!
1R!
b00000000000000000000010010110000 V!
b000000100101100 ^!
1q!
#105
0q!
#110
b00000000000000000000000000011000 %
0/
b00000000000000000000000000000000 1
b00 5
b00000000000000000000000000001011 7
b00000000000000000000000000011100 i
0r
0C!
b00000000000000010000000000010100 D!
1F!
b00100 G!
1H!
b00000000000000000000000000011000 M!
0R!
b00000000000000000000000000000000 V!
b000000000000000 ^!
1e!
1q!
#115
0q!
#120
b00000000000000000000000000011100 %
b00010000000000011010001000101111 &
1'
b00000000000000000000010010110000 )
b00000000000000010000000000011000 -
b00000000000000000000000000010011 .
b01 5
b00000000000000000000000000001100 7
19
b0001000 [
b00011 ]
b010 ^
b00100 _
b0101111 `
b00000000000000000000010010110000 a
b000100000000 c
b00000000000000000000000100000000 d
b00000000000000000000000000100000 i
b0000000 6!
b00000 8!
b000 9!
b00000 :!
b0010011 ;!
b00000000000000000000000000000000 <!
b000000000000 >!
b00000000000000000000000000000000 ?!
1C!
b00000000000000010000000000011100 D!
0F!
0H!
b00000000000000000000000000011100 M!
b00000000000000010000000000011000 N!
b00010000000000011010001000101111 O!
b00000000000000000000000000010011 P!
1Q!
b00000000000000000000010010110000 U!
b000000100101100 ]!
1q!
#125
0q!
#130
0'
b00000000000000000000000000000000 )
b00000000000000010000000000011100 -
b00 5
b00000000000000000000000000001101 7
09
0h
b00000000000000000000000000011100 i
1k
b00100 l
1m
b00000000000000010000000000100000 D!
b00000000000000010000000000011100 N!
0Q!
b00000000000000000000000000000000 U!
b000000000000000 ]!
1d!
1q!
#135
0q!
#140
b00000000000000000000000000100000 %
b00000000000000000000000000010011 &
b00000000000000010000000000100000 -
b00000000000000000000000000001110 7
b0000000 [
b00000 ]
b000 ^
b00000 _
b0010011 `
b00000000000000000000000000000000 a
b000000000000 c
b00000000000000000000000000000000 d
1h
b00000000000000000000000000100100 i
0k
0m
b00000000000000010000000000100100 D!
b00000000000000000000000000100000 M!
b00000000000000010000000000100000 N!
b00000000000000000000000000010011 O!
1q!
#145
0q!
#150
b00000000000000000000000000100100 %
b00000000000000010000000000100100 -
b00000000000000000000000000001111 7
b00000000000000000000000000101000 i
b00000000000000010000000000101000 D!
b00000000000000000000000000100100 M!
b00000000000000010000000000100100 N!
1q!
#155
0q!
#160
b00000000000000000000000000101000 %
b00000000000000010000000000101000 -
b00011000001000011010001010101111 .
1/
10
b00000000000000000000010010110000 1
b1111 2
b00000000000000000000000011000001 3
b00000000000000000000000000010000 7
b00000000000000000000000000101100 i
b0001100 6!
b00010 7!
b00011 8!
b010 9!
b00101 :!
b0101111 ;!
b00000000000000000000010010110000 <!
b00000000000000000000000011000001 =!
b000110000010 >!
b00000000000000000000000110000010 ?!
b00000000000000010000000000101100 D!
b00000000000000000000000000000001 E!
b00000000000000000000000000101000 M!
b00000000000000010000000000101000 N!
b00011000001000011010001010101111 P!
1R!
1T!
b00000000000000000000010010110000 V!
b1111 X!
b00000000000000000000000011000001 Z!
b000000100101100 ^!
1a!
1m!
1n!
1q!
#165
0q!
#170
b00000000000000000000000000101100 %
0/
00
b00000000000000000000000000000000 1
b0000 2
b00000000000000000000000000000000 3
b01 6
b00000000000000000000000000010001 7
b00000000000000000000000000110000 i
0s
0C!
b00000000000000010000000000101000 D!
b00000000000000000000000000000000 E!
1F!
b00101 G!
1I!
b00000000000000000000000000101100 M!
0R!
0T!
b00000000000000000000000000000000 V!
b0000 X!
b00000000000000000000000000000000 Z!
b000000000000000 ^!
0a!
0d!
0e!
0g!
0m!
0n!
1q!
#175
0q!
#180
b00000000000000000000000000110000 %
b00011000001000011010001010101111 &
1'
1(
b00000000000000000000010010110000 )
b1111 *
b00000000000000000000000011000000 +
b00000000000000010000000000101100 -
b00000000000000011010001100000011 .
1/
b00000000000000000000010010110000 1
b00000000000000000000000000010010 7
b0001100 [
b00010 \
b00011 ]
b010 ^
b00101 _
b0101111 `
b00000000000000000000010010110000 a
b00000000000000000000000011000000 b
b000110000010 c
b00000000000000000000000110000010 d
b00000000000000000000000000110100 i
b00000000000000000000000000000001 j
b00000000000000000000000000000000 y
b0000000 6!
b00000 7!
b00110 :!
b0000011 ;!
b00000000000000000000000000000000 =!
b000000000000 >!
b00000000000000000000000000000000 ?!
1C!
b00000000000000010000000000110000 D!
0F!
0I!
b00000000000000000000000000110000 M!
b00000000000000010000000000101100 N!
b00011000001000011010001010101111 O!
b00000000000000011010001100000011 P!
1Q!
1R!
1S!
b00000000000000000000010010110000 U!
b00000000000000000000010010110000 V!
b1111 W!
b00000000000000000000000011000000 Y!
b000000100101100 ]!
b000000100101100 ^!
1`!
1q!
#185
0q!
#190
0'
0(
b00000000000000000000000000000000 )
b0000 *
b00000000000000000000000000000000 +
b00000000000000000000000011000001 ,
0/
b00000000000000000000000000000000 1
b00000000000000000000000011000001 4
b00000000000000000000000000010011 7
0h
b00000000000000000000000000110000 i
b00000000000000000000000000000000 j
1k
b00101 l
1n
0C!
b00000000000000010000000000101100 D!
1F!
b00110 G!
1J!
b010 K!
0Q!
0R!
0S!
b00000000000000000000000000000000 U!
b00000000000000000000000000000000 V!
b0000 W!
b00000000000000000000000000000000 Y!
b00000000000000000000000011000001 [!
b00000000000000000000000011000001 \!
b000000000000000 ]!
b000000000000000 ^!
0`!
1q!
#195
0q!
#200
1$
b00000000000000000000000000110100 %
b00000000000000011010001100000011 &
1'
b00000000000000000000010010110000 )
b00000000000000010000000000110000 -
b00000000000100000000000001110011 .
b00000000000000000000000000010100 7
b00000000000000000000000000000001 @
b0000000 [
b00000 \
b00110 _
b0000011 `
b00000000000000000000000000000000 b
b000000000000 c
b00000000000000000000000000000000 d
1h
b00000000000000000000000000111000 i
b00000000000000000000000011000001 j
0k
0n
b00000000000000000000000011000001 z
b00001 7!
b00000 8!
b000 9!
b00000 :!
b1110011 ;!
b00000000000000000000000000000000 <!
b000000000001 >!
b00000000000000000000000000000001 ?!
1B!
b00000000000000010000000000110100 D!
0F!
0J!
b00000000000000000000000000110100 M!
b00000000000000010000000000110000 N!
b00000000000000011010001100000011 O!
b00000000000100000000000001110011 P!
1Q!
b00000000000000000000010010110000 U!
b000000100101100 ]!
1q!
#205
0q!
#210
0'
b00000000000000000000000000000000 )
b00000000000000000000000000010101 7
0h
b00000000000000000000000000110100 i
b00000000000000000000000000000000 j
1k
b00110 l
1o
b010 p
0Q!
b00000000000000000000000000000000 U!
b000000000000000 ]!
1q!
#215
0q!
#220
1#
b00000000000000000000000000111000 %
b00000000000100000000000001110011 &
b00000000000000000000000000010110 7
b00000000000000000000000011000001 A
b00001 \
b00000 ]
b000 ^
b00000 _
b1110011 `
b00000000000000000000000000000000 a
b000000000001 c
b00000000000000000000000000000001 d
1g
b00000000000000000000000000111100 i
0k
0o
b00000000000000000000000000111000 M!
b00000000000100000000000001110011 O!
1q!
#225
0q!
#230
b00000000000000000000000000010111 7
b00000000000000000000000000100000 8
1q!
