lab6-pipe2/gtkwave.vcd
$version Generated by VerilatedVcd $end
$date Sun Sep 28 23:27:36 2025
 $end
$timescale   1ps $end

 $scope module TOP $end
  $var wire  1 { clock $end
  $var wire  1 | reset $end
  $scope module testbench $end
   $var wire 32 } MEM_ADDR_WIDTH [31:0] $end
   $var wire  1 { clock $end
   $var wire 32 ) cycles [31:0] $end
   $var wire 32 j dmem_addr [31:0] $end
   $var wire 32 % dmem_rdata [31:0] $end
   $var wire  1 i dmem_valid $end
   $var wire 32 l dmem_wdata [31:0] $end
   $var wire  4 k dmem_wstrb [3:0] $end
   $var wire 32 ( i [31:0] $end
   $var wire 32 h imem_addr [31:0] $end
   $var wire 32 $ imem_data [31:0] $end
   $var wire 32 & out [31:0] $end
   $var wire  1 ' out_valid $end
   $var wire  1 | reset $end
   $var wire  1 # trap $end
   $var wire  1 m wr_in_mem_range $end
   $var wire  1 n wr_in_output $end
   $scope module dut $end
    $var wire 32 !! NUMREGS [31:0] $end
    $var wire  7 /! OPCODE_AMO [6:0] $end
    $var wire  7 6! OPCODE_AUIPC [6:0] $end
    $var wire  7 %! OPCODE_BRANCH [6:0] $end
    $var wire  7 *! OPCODE_CUSTOM_0 [6:0] $end
    $var wire  7 +! OPCODE_CUSTOM_1 [6:0] $end
    $var wire  7 <! OPCODE_CUSTOM_2 [6:0] $end
    $var wire  7 =! OPCODE_CUSTOM_3 [6:0] $end
    $var wire  7 1! OPCODE_JAL [6:0] $end
    $var wire  7 )! OPCODE_JALR [6:0] $end
    $var wire  7 "! OPCODE_LOAD [6:0] $end
    $var wire  7 &! OPCODE_LOAD_FP [6:0] $end
    $var wire  7 7! OPCODE_LUI [6:0] $end
    $var wire  7 $! OPCODE_MADD [6:0] $end
    $var wire  7 .! OPCODE_MISC_MEM [6:0] $end
    $var wire  7 (! OPCODE_MSUB [6:0] $end
    $var wire  7 0! OPCODE_NMADD [6:0] $end
    $var wire  7 ,! OPCODE_NMSUB [6:0] $end
    $var wire  7 3! OPCODE_OP [6:0] $end
    $var wire  7 ;! OPCODE_OP_32 [6:0] $end
    $var wire  7 4! OPCODE_OP_FP [6:0] $end
    $var wire  7 2! OPCODE_OP_IMM [6:0] $end
    $var wire  7 :! OPCODE_OP_IMM_32 [6:0] $end
    $var wire  7 -! OPCODE_RESERVED_0 [6:0] $end
    $var wire  7 8! OPCODE_RESERVED_1 [6:0] $end
    $var wire  7 9! OPCODE_RESERVED_2 [6:0] $end
    $var wire  7 #! OPCODE_STORE [6:0] $end
    $var wire  7 '! OPCODE_STORE_FP [6:0] $end
    $var wire  7 5! OPCODE_SYSTEM [6:0] $end
    $var wire 32 ~ RESET_ADDR [31:0] $end
    $var wire  1 Q br_taken_d $end
    $var wire  1 P br_taken_q $end
    $var wire 32 S br_target_d [31:0] $end
    $var wire 32 R br_target_q [31:0] $end
    $var wire  1 { clock $end
    $var wire 32 j dmem_addr [31:0] $end
    $var wire 32 % dmem_rdata [31:0] $end
    $var wire  1 i dmem_valid $end
    $var wire 32 l dmem_wdata [31:0] $end
    $var wire  4 k dmem_wstrb [3:0] $end
    $var wire  1 z illinsn $end
    $var wire 32 h imem_addr [31:0] $end
    $var wire 32 O imem_addr_q [31:0] $end
    $var wire 32 $ imem_data [31:0] $end
    $var wire 13 ^ imm_b [12:0] $end
    $var wire 32 c imm_b_sext [31:0] $end
    $var wire 12 \ imm_i [11:0] $end
    $var wire 32 a imm_i_sext [31:0] $end
    $var wire 21 ` imm_j [20:0] $end
    $var wire 20 _ imm_j_enc [20:1] $end
    $var wire 32 d imm_j_sext [31:0] $end
    $var wire 12 ] imm_s [11:0] $end
    $var wire 32 b imm_s_sext [31:0] $end
    $var wire 32 M insn [31:0] $end
    $var wire  3 Y insn_funct3 [2:0] $end
    $var wire  7 V insn_funct7 [6:0] $end
    $var wire  7 [ insn_opcode [6:0] $end
    $var wire  5 Z insn_rd [4:0] $end
    $var wire  5 X insn_rs1 [4:0] $end
    $var wire  5 W insn_rs2 [4:0] $end
    $var wire 32 M ir [31:0] $end
    $var wire 32 t mem_rd_addr [31:0] $end
    $var wire  1 s mem_rd_enable $end
    $var wire  1 * mem_rd_enable_q $end
    $var wire  5 v mem_rd_func [4:0] $end
    $var wire  5 , mem_rd_func_q [4:0] $end
    $var wire  5 u mem_rd_reg [4:0] $end
    $var wire  5 + mem_rd_reg_q [4:0] $end
    $var wire 32 g mem_rdata [31:0] $end
    $var wire 32 p mem_wr_addr [31:0] $end
    $var wire 32 q mem_wr_data [31:0] $end
    $var wire  1 o mem_wr_enable $end
    $var wire  4 r mem_wr_strb [3:0] $end
    $var wire 32 y next_rd [31:0] $end
    $var wire  1 x next_wr $end
    $var wire 32 w npc [31:0] $end
    $var wire 32 N pc [31:0] $end
    $var wire 32 O pc_ex [31:0] $end
    $var wire 32 - regfile(0) [31:0] $end
    $var wire 32 . regfile(1) [31:0] $end
    $var wire 32 7 regfile(10) [31:0] $end
    $var wire 32 8 regfile(11) [31:0] $end
    $var wire 32 9 regfile(12) [31:0] $end
    $var wire 32 : regfile(13) [31:0] $end
    $var wire 32 ; regfile(14) [31:0] $end
    $var wire 32 < regfile(15) [31:0] $end
    $var wire 32 = regfile(16) [31:0] $end
    $var wire 32 > regfile(17) [31:0] $end
    $var wire 32 ? regfile(18) [31:0] $end
    $var wire 32 @ regfile(19) [31:0] $end
    $var wire 32 / regfile(2) [31:0] $end
    $var wire 32 A regfile(20) [31:0] $end
    $var wire 32 B regfile(21) [31:0] $end
    $var wire 32 C regfile(22) [31:0] $end
    $var wire 32 D regfile(23) [31:0] $end
    $var wire 32 E regfile(24) [31:0] $end
    $var wire 32 F regfile(25) [31:0] $end
    $var wire 32 G regfile(26) [31:0] $end
    $var wire 32 H regfile(27) [31:0] $end
    $var wire 32 I regfile(28) [31:0] $end
    $var wire 32 J regfile(29) [31:0] $end
    $var wire 32 0 regfile(3) [31:0] $end
    $var wire 32 K regfile(30) [31:0] $end
    $var wire 32 L regfile(31) [31:0] $end
    $var wire 32 1 regfile(4) [31:0] $end
    $var wire 32 2 regfile(5) [31:0] $end
    $var wire 32 3 regfile(6) [31:0] $end
    $var wire 32 4 regfile(7) [31:0] $end
    $var wire 32 5 regfile(8) [31:0] $end
    $var wire 32 6 regfile(9) [31:0] $end
    $var wire  1 | reset $end
    $var wire  1 f reset_q $end
    $var wire 32 T rs1_value [31:0] $end
    $var wire 32 U rs2_value [31:0] $end
    $var wire  1 # trap $end
    $var wire  1 # trapped $end
    $var wire  1 e trapped_q $end
   $upscope $end
  $upscope $end
 $upscope $end
$enddefinitions $end


#5
0#
b00000000000000000000000000000000 $
b00000000000000000000000000000000 %
b00000000000000000000000000000000 &
0'
b00000000000000000000000000000000 (
b00000000000000000000000000000000 )
0*
b00000 +
b00000 ,
b00000000000000000000000000000000 -
b00000000000000000000000000000000 .
b00000000000000000000000000000000 /
b00000000000000000000000000000000 0
b00000000000000000000000000000000 1
b00000000000000000000000000000000 2
b00000000000000000000000000000000 3
b00000000000000000000000000000000 4
b00000000000000000000000000000000 5
b00000000000000000000000000000000 6
b00000000000000000000000000000000 7
b00000000000000000000000000000000 8
b00000000000000000000000000000000 9
b00000000000000000000000000000000 :
b00000000000000000000000000000000 ;
b00000000000000000000000000000000 <
b00000000000000000000000000000000 =
b00000000000000000000000000000000 >
b00000000000000000000000000000000 ?
b00000000000000000000000000000000 @
b00000000000000000000000000000000 A
b00000000000000000000000000000000 B
b00000000000000000000000000000000 C
b00000000000000000000000000000000 D
b00000000000000000000000000000000 E
b00000000000000000000000000000000 F
b00000000000000000000000000000000 G
b00000000000000000000000000000000 H
b00000000000000000000000000000000 I
b00000000000000000000000000000000 J
b00000000000000000000000000000000 K
b00000000000000000000000000000000 L
b00000000000000000000000000000000 M
b00000000000000000000000000000000 N
b00000000000000000000000000000000 O
0P
0Q
b00000000000000000000000000000000 R
b00000000000000000000000000000000 S
b00000000000000000000000000000000 T
b00000000000000000000000000000000 U
b0000000 V
b00000 W
b00000 X
b000 Y
b00000 Z
b0000000 [
b000000000000 \
b000000000000 ]
b0000000000000 ^
b00000000000000000000 _
b000000000000000000000 `
b00000000000000000000000000000000 a
b00000000000000000000000000000000 b
b00000000000000000000000000000000 c
b00000000000000000000000000000000 d
0e
0f
b00000000000000000000000000000000 g
b00000000000000000000000000000100 h
0i
b00000000000000000000000000000000 j
b0000 k
b00000000000000000000000000000000 l
1m
0n
0o
b00000000000000000000000000000000 p
b00000000000000000000000000000000 q
b0000 r
0s
b00000000000000000000000000000000 t
b00000 u
b00000 v
b00000000000000000000000000000100 w
0x
b00000000000000000000000000000000 y
1z
0{
0|
b00000000000000000000000000010000 }
b00000000000000000000000000000000 ~
b00000000000000000000000000100000 !!
b0000011 "!
b0100011 #!
b1000011 $!
b1100011 %!
b0000111 &!
b0100111 '!
b1000111 (!
b1100111 )!
b0001011 *!
b0101011 +!
b1001011 ,!
b1101011 -!
b0001111 .!
b0101111 /!
b1001111 0!
b1101111 1!
b0010011 2!
b0110011 3!
b1010011 4!
b1110011 5!
b0010111 6!
b0110111 7!
b1010111 8!
b1110111 9!
b0011011 :!
b0111011 ;!
b1011011 <!
b1111011 =!
#10
#15
b00000000000000000000000000000000 h
b00000000000000000000000000000000 w
0z
1|
#20
#25
b00000000000000000000010100010011 $
b00000000000000000000000000000001 )
b00000000000000000000000000010011 M
b11111111111111111111111111111100 N
b0010011 [
1f
1{
#30
#35
0{
#40
#45
b00000000000000000000000000000010 )
1{
#50
#55
0{
#60
#65
b00000000000000000000000000000011 )
1{
#70
#75
0{
#80
#85
b00000000000000000000000000000100 )
1{
#90
#95
0{
0|
#100
#105
b00000000000000000000000000000101 )
b00000000000000000000000000000000 N
0f
b00000000000000000000000000000100 h
b00000000000000000000000000000100 w
1x
1{
#110
#115
0{
#120
#125
b00000000000100000000010110010011 $
b00000000000000000000000000000110 )
b00000000000000000000010100010011 M
b00000000000000000000000000000100 N
b00000000000000000000000000000100 O
b01010 Z
b000000001010 ]
b0000000001010 ^
b00000000000000000000000000001010 b
b00000000000000000000000000001010 c
b00000000000000000000000000001000 h
b00000000000000000000000000001000 w
1{
#130
#135
0{
#140
#145
b00000000101100000000011000010011 $
b00000000000000000000000000000111 )
b00000000000100000000010110010011 M
b00000000000000000000000000001000 N
b00000000000000000000000000001000 O
b00001 W
b01011 Z
b000000000001 \
b000000001011 ]
b0100000001010 ^
b00000000010000000000 _
b000000000100000000000 `
b00000000000000000000000000000001 a
b00000000000000000000000000001011 b
b00000000000000000000100000001010 c
b00000000000000000000100000000000 d
b00000000000000000000000000001100 h
b00000000000000000000000000001100 w
b00000000000000000000000000000001 y
1{
#150
#155
0{
#160
#165
b00000000000101010000010100110011 $
b00000000000000000000000000001000 )
b00000000000000000000000000000001 8
b00000000101100000000011000010011 M
b00000000000000000000000000001100 N
b00000000000000000000000000001100 O
b00000000000000000000000000000001 U
b01011 W
b01100 Z
b000000001011 \
b000000001100 ]
b0000000001100 ^
b00000000010000000101 _
b000000000100000001010 `
b00000000000000000000000000001011 a
b00000000000000000000000000001100 b
b00000000000000000000000000001100 c
b00000000000000000000100000001010 d
b00000000000000000000000000010000 h
b00000000000000000000000000010000 w
b00000000000000000000000000001011 y
1{
#170
#175
0{
#180
#185
b11111110110001011001111011100011 $
b00000000000000000000000000001001 )
b00000000000000000000000000001011 9
b00000000000101010000010100110011 M
b00000000000000000000000000010000 N
b00000000000000000000000000010000 O
b00000000000000000000000000000000 U
b00001 W
b01010 X
b01010 Z
b0110011 [
b000000000001 \
b000000001010 ]
b0000000001010 ^
b00101000010000000000 _
b001010000100000000000 `
b00000000000000000000000000000001 a
b00000000000000000000000000001010 b
b00000000000000000000000000001010 c
b00000000000001010000100000000000 d
b00000000000000000000000000010100 h
b00000000000000000000000000010100 w
b00000000000000000000000000000000 y
1{
#190
#195
0{
#200
#205
b00000000000101011000010110010011 $
b00000000000000000000000000001010 )
b11111110110001011001111011100011 M
b00000000000000000000000000010100 N
b00000000000000000000000000010100 O
1Q
b00000000000000000000000000010000 S
b00000000000000000000000000000001 T
b00000000000000000000000000001011 U
b1111111 V
b01100 W
b01011 X
b001 Y
b11101 Z
b1100011 [
b111111101100 \
b111111111101 ]
b1111111111100 ^
b10101100101111110110 _
b101011001011111101100 `
b11111111111111111111111111101100 a
b11111111111111111111111111111101 b
b11111111111111111111111111111100 c
b11111111111101011001011111101100 d
b00000000000000000000000000011000 h
b00000000000000000000000000011000 w
0x
1{
#210
#215
0{
#220
#225
b00000000000100000000000001110011 $
b00000000000000000000000000001011 )
b00000000000101011000010110010011 M
b00000000000000000000000000011000 N
b00000000000000000000000000011000 O
1P
0Q
b00000000000000000000000000010000 R
b00000000000000000000000000000000 S
b00000000000000000000000000000000 U
b0000000 V
b00001 W
b000 Y
b01011 Z
b0010011 [
b000000000001 \
b000000001011 ]
b0100000001010 ^
b00101100010000000000 _
b001011000100000000000 `
b00000000000000000000000000000001 a
b00000000000000000000000000001011 b
b00000000000000000000100000001010 c
b00000000000001011000100000000000 d
b00000000000000000000000000010000 h
b00000000000000000000000000010000 w
1x
b00000000000000000000000000000010 y
1{
#230
#235
0{
#240
#245
b11111110110001011001111011100011 $
b00000000000000000000000000001100 )
b00000000000000000000000000000010 8
b00000000000100000000000001110011 M
b00000000000000000000000000010000 N
b00000000000000000000000000010000 O
0P
b00000000000000000000000000000000 R
b00000000000000000000000000000000 T
b00000 X
b00000 Z
b1110011 [
b000000000000 ]
b0000000000000 ^
b00000000010000000000 _
b000000000100000000000 `
b00000000000000000000000000000000 b
b00000000000000000000000000000000 c
b00000000000000000000100000000000 d
b00000000000000000000000000010100 h
b00000000000000000000000000010100 w
0x
b00000000000000000000000000000000 y
1z
1{
#250
#255
0{
#260
#265
1#
b00000000000101011000010110010011 $
b00000000000000000000000000001101 )
b11111110110001011001111011100011 M
b00000000000000000000000000010100 N
b00000000000000000000000000010100 O
1Q
b00000000000000000000000000010000 S
b00000000000000000000000000000010 T
b00000000000000000000000000001011 U
b1111111 V
b01100 W
b01011 X
b001 Y
b11101 Z
b1100011 [
b111111101100 \
b111111111101 ]
b1111111111100 ^
b10101100101111110110 _
b101011001011111101100 `
b11111111111111111111111111101100 a
b11111111111111111111111111111101 b
b11111111111111111111111111111100 c
b11111111111101011001011111101100 d
b00000000000000000000000000011000 w
0z
1{
